(footprint "Nixie IN-12-DSUB" (version 20211014) (generator pcbnew)
  (layer "F.Cu")
  (tedit 200000)
  (descr "FOR USE WITH FEMALE D-SUB PINS")
  (tags "FOR USE WITH FEMALE D-SUB PINS")
  (attr exclude_from_pos_files exclude_from_bom)
  (fp_text reference ">NAME" (at 0 -15.9 180) (layer "F.SilkS")
    (effects (font (size 1.27 1.27) (thickness 0.1016)))
    (tstamp 529b27cd-0149-4e4f-b906-1cb4589f11ab)
  )
  (fp_text value "Val**" (at 0.45 11.85) (layer "F.SilkS")
    (effects (font (size 1.27 1.27) (thickness 0.15)))
    (tstamp 3854873a-fcd5-4752-8ec6-b661665c1dbc)
  )
  (fp_text user "Top" (at 0 -4.9) (layer "F.SilkS")
    (effects (font (size 1.27 1.27) (thickness 0.1016)))
    (tstamp 136eff60-99a3-46e3-822d-81d40e64bc13)
  )
  (fp_text user "Bot" (at 0 4.8) (layer "F.SilkS")
    (effects (font (size 1.27 1.27) (thickness 0.1016)))
    (tstamp d6dd9ac9-5bf3-4832-a1de-d8f0b4afe3c6)
  )
  (fp_line (start -9.92124 9.92124) (end -9.92124 -9.92124) (layer "F.SilkS") (width 0.254) (tstamp 7314765d-80e9-4410-8465-d1297d5b8d63))
  (fp_line (start 9.92124 -9.92124) (end 9.92124 9.92124) (layer "F.SilkS") (width 0.254) (tstamp eb0a3ef7-f078-49d7-9f9f-738acf7c7991))
  (fp_arc (start -9.92124 -9.92124) (mid 0.000928 -14.547158) (end 9.922433 -9.919819) (layer "F.SilkS") (width 0.254) (tstamp 56e91196-2b44-4149-a7b4-716716b8ac55))
  (fp_arc (start 9.92124 9.92124) (mid -0.000928 14.547158) (end -9.922433 9.919819) (layer "F.SilkS") (width 0.254) (tstamp 5836da99-7588-4b5d-a976-2d7f5be142d8))
  (fp_circle (center 0 0) (end 0 -2.54) (layer "F.SilkS") (width 0.127) (fill none) (tstamp 1ef747e4-ae81-4486-a5c1-629807a592ed))
  (fp_line (start 9.92124 -9.92124) (end 9.92124 9.92124) (layer "F.Fab") (width 0.254) (tstamp 5531e809-e992-4977-af06-144eb75ecc80))
  (fp_line (start -9.92124 9.92124) (end -9.92124 -9.92124) (layer "F.Fab") (width 0.254) (tstamp 92b88805-9243-41d4-8140-665ecbb1f26e))
  (fp_arc (start 9.92124 9.92124) (mid -0.000928 14.547158) (end -9.922433 9.919819) (layer "F.Fab") (width 0.254) (tstamp 76dfdebe-41f7-4964-a742-721bf985d7b3))
  (fp_arc (start -9.92124 -9.92124) (mid 0.000928 -14.547158) (end 9.922433 -9.919819) (layer "F.Fab") (width 0.254) (tstamp fc9e7618-408a-4de4-87e3-5f07f4e953ec))
  (pad "" np_thru_hole circle (at 0 0) (size 4.99872 4.99872) (drill 4.99872) (layers *.Cu *.Mask) (tstamp 32028f6f-59f3-4243-bd2e-f641a3bcdf83))
  (pad "0" thru_hole circle (at 5.74802 4.49834) (size 2.39776 2.39776) (drill 1.59766) (layers *.Cu *.Mask) (tstamp c2c4b2a3-2893-4b5c-a8e6-7d31499d9d60))
  (pad "1" thru_hole circle (at -3.99796 7.99846) (size 2.39776 2.39776) (drill 1.59766) (layers *.Cu *.Mask) (tstamp 84ec835c-0f81-4f35-a208-f87ffd4787a9))
  (pad "2" thru_hole circle (at -5.74802 4.49834) (size 2.39776 2.39776) (drill 1.59766) (layers *.Cu *.Mask) (tstamp 7ec448e5-dd8b-4bdb-87a8-1272f3e09af7))
  (pad "3" thru_hole circle (at -5.74802 0) (size 2.39776 2.39776) (drill 1.59766) (layers *.Cu *.Mask) (tstamp 3de9f112-dfdd-4ce8-8a91-f71ee9a8652d))
  (pad "4" thru_hole circle (at -5.74802 -4.49834) (size 2.39776 2.39776) (drill 1.59766) (layers *.Cu *.Mask) (tstamp 1c4722f9-a407-4ac7-bb19-ca79d9c27832))
  (pad "5" thru_hole circle (at -3.99796 -7.99846) (size 2.39776 2.39776) (drill 1.59766) (layers *.Cu *.Mask) (tstamp c6087c24-8db7-4724-81b3-6325223b17c3))
  (pad "6" thru_hole circle (at 0 -8.99922) (size 2.39776 2.39776) (drill 1.59766) (layers *.Cu *.Mask) (tstamp 7c2633f6-8528-48f5-aa2f-7e9b1f90c15c))
  (pad "7" thru_hole circle (at 3.99796 -7.99846) (size 2.39776 2.39776) (drill 1.59766) (layers *.Cu *.Mask) (tstamp 764cadd0-18e3-423f-a5be-0ce289aa0d91))
  (pad "8" thru_hole circle (at 5.74802 -4.49834) (size 2.39776 2.39776) (drill 1.59766) (layers *.Cu *.Mask) (tstamp daddd18a-ebd4-4bb3-a3a5-705689d1a4f8))
  (pad "9" thru_hole circle (at 5.74802 0) (size 2.39776 2.39776) (drill 1.59766) (layers *.Cu *.Mask) (tstamp 2f58ded7-c7ca-42c3-9078-9e2e9b22d436))
  (pad "A" thru_hole circle (at 3.99796 7.99846) (size 2.39776 2.39776) (drill 1.59766) (layers *.Cu *.Mask) (tstamp 0b9da152-52a8-4c2a-a8d1-2ce56027f96f))
  (pad "LHDP" thru_hole circle (at 0 8.99922) (size 2.39776 2.39776) (drill 1.59766) (layers *.Cu *.Mask) (tstamp 91514291-b14c-4374-bace-7b2a53aefe73))
)
