(footprint "PinHeader_2x03_P2.54mm_Vertical" (version 20211014) (generator pcbnew)
  (layer "F.Cu")
  (tedit 59FED5CC)
  (descr "Through hole straight pin header, 2x03, 2.54mm pitch, double rows")
  (tags "Through hole pin header THT 2x03 2.54mm double row")
  (attr through_hole)
  (fp_text reference "REF**" (at 1.35 -2.55) (layer "F.SilkS")
    (effects (font (size 1 1) (thickness 0.15)))
    (tstamp a1695a9b-d568-49c9-8e32-8f28b43497e3)
  )
  (fp_text value "PinHeader_2x03_P2.54mm_Vertical" (at 1.27 7.41) (layer "F.Fab")
    (effects (font (size 1 1) (thickness 0.15)))
    (tstamp 50c05935-62f0-415f-b4e5-9839168ee0d5)
  )
  (fp_text user "${REFERENCE}" (at 1.27 2.54 90) (layer "F.Fab")
    (effects (font (size 1 1) (thickness 0.15)))
    (tstamp ee98a671-d44c-4e42-bda7-9e61f94d9023)
  )
  (fp_line (start -1.35 4.5) (end -1.8 4.5) (layer "F.SilkS") (width 0.12) (tstamp 5631fb49-41c4-4262-8f37-0060051618de))
  (fp_line (start -1.33 6.41) (end 3.87 6.41) (layer "F.SilkS") (width 0.12) (tstamp 5f6c5cfa-9127-4a4b-9b4b-087a1ba657a4))
  (fp_line (start 3.87 -1.3) (end 3.87 6.41) (layer "F.SilkS") (width 0.12) (tstamp 9bfa780e-e318-43ed-870f-c3247f648c88))
  (fp_line (start 3.87 -1.3) (end -1.3 -1.3) (layer "F.SilkS") (width 0.12) (tstamp 9ed88165-1720-4c08-af5b-201b52c943a2))
  (fp_line (start -1.3 -1.3) (end -1.33 6.41) (layer "F.SilkS") (width 0.12) (tstamp c55bd168-f478-48ca-b3c9-78f7df3b5a6a))
  (fp_line (start -1.8 2.5) (end -1.8 4.5) (layer "F.SilkS") (width 0.12) (tstamp c57fcc2d-fb9a-4e7f-8176-c819d5120d12))
  (fp_line (start -1.8 2.5) (end -1.8 0.5) (layer "F.SilkS") (width 0.12) (tstamp e8c52461-7c8b-4808-8fda-284955b7cebe))
  (fp_line (start -1.8 0.5) (end -1.3 0.5) (layer "F.SilkS") (width 0.12) (tstamp fd3188d2-0234-4d7c-a648-4bba550e8a63))
  (fp_line (start -1.65 -1.75) (end 4.2 -1.75) (layer "F.SilkS") (width 0.25) (tstamp fff310f6-dd20-46a2-a80c-18c90cb63c56))
  (fp_line (start 4.35 6.85) (end 4.35 -1.8) (layer "F.CrtYd") (width 0.05) (tstamp 25f85b4b-7735-4801-90f4-eabe278f3087))
  (fp_line (start -1.8 6.85) (end 4.35 6.85) (layer "F.CrtYd") (width 0.05) (tstamp 70c56f76-cc32-492b-acc1-0738f839bfbd))
  (fp_line (start 4.35 -1.8) (end -1.8 -1.8) (layer "F.CrtYd") (width 0.05) (tstamp 78c82f62-0b24-4de4-92cc-2a6156b32119))
  (fp_line (start -1.8 -1.8) (end -1.8 6.85) (layer "F.CrtYd") (width 0.05) (tstamp a95dcb6b-8075-4faa-a98c-325e64c19156))
  (fp_line (start -1.27 6.35) (end -1.27 0) (layer "F.Fab") (width 0.1) (tstamp 25db3647-3dd6-49c9-8607-401cb6c98869))
  (fp_line (start 3.81 6.35) (end -1.27 6.35) (layer "F.Fab") (width 0.1) (tstamp 5596ee42-9552-4205-9f4c-72d523195be5))
  (fp_line (start 3.81 -1.27) (end 3.81 6.35) (layer "F.Fab") (width 0.1) (tstamp 6081530c-21a7-45a9-8e28-f1ba9678ba42))
  (fp_line (start 0 -1.27) (end 3.81 -1.27) (layer "F.Fab") (width 0.1) (tstamp 758bd54f-220d-4384-a20f-a60777dc3fac))
  (fp_line (start -1.27 0) (end 0 -1.27) (layer "F.Fab") (width 0.1) (tstamp 812dcc5e-c22c-4acc-af59-6389e38cda86))
  (pad "1" thru_hole rect (at 0 0) (size 1.7 1.7) (drill 1) (layers *.Cu *.Mask) (tstamp ff8720a8-c701-43b7-bc7a-6a6c11d04791))
  (pad "2" thru_hole oval (at 2.54 0) (size 1.7 1.7) (drill 1) (layers *.Cu *.Mask) (tstamp 93705e7d-73dc-4f61-b875-d8fcdde8067f))
  (pad "3" thru_hole oval (at 0 2.54) (size 1.7 1.7) (drill 1) (layers *.Cu *.Mask) (tstamp 213e6c43-7a98-43d7-9b82-159f877d37de))
  (pad "4" thru_hole oval (at 2.54 2.54) (size 1.7 1.7) (drill 1) (layers *.Cu *.Mask) (tstamp 901745ea-2db8-46b8-a47a-dfbf66358efa))
  (pad "5" thru_hole oval (at 0 5.08) (size 1.7 1.7) (drill 1) (layers *.Cu *.Mask) (tstamp 023497c7-041e-403d-8f7d-9c2e6e22dee8))
  (pad "6" thru_hole oval (at 2.54 5.08) (size 1.7 1.7) (drill 1) (layers *.Cu *.Mask) (tstamp 40df788e-cbea-4ad2-95b7-f0e2511469bb))
  (model "${KICAD6_3DMODEL_DIR}/Connector_PinHeader_2.54mm.3dshapes/PinHeader_2x03_P2.54mm_Vertical.wrl"
    (offset (xyz 0 0 0))
    (scale (xyz 1 1 1))
    (rotate (xyz 0 0 0))
  )
)
