(kicad_symbol_lib (version 20220914) (generator kicad_symbol_editor)
  (symbol "+5V" (power) (pin_names (offset 0)) (in_bom yes) (on_board yes)
    (property "Reference" "+5V" (at 0 -3.81 0)
      (effects (font (size 1.27 1.27)) hide)
    )
    (property "Value" "+5V" (at 0 3.556 0)
      (effects (font (size 1.27 1.27)))
    )
    (property "Footprint" "" (at 0 0 0)
      (effects (font (size 1.27 1.27)) hide)
    )
    (property "Datasheet" "" (at 0 0 0)
      (effects (font (size 1.27 1.27)) hide)
    )
    (property "ki_keywords" "local power" (at 0 0 0)
      (effects (font (size 1.27 1.27)) hide)
    )
    (property "ki_description" "Power symbol creates a locallabel with name \"+5V\"" (at 0 0 0)
      (effects (font (size 1.27 1.27)) hide)
    )
    (symbol "+5V_0_1"
      (polyline
        (pts
          (xy -0.762 1.27)
          (xy 0 2.54)
        )
        (stroke (width 0) (type default))
        (fill (type none))
      )
      (polyline
        (pts
          (xy 0 0)
          (xy 0 2.54)
        )
        (stroke (width 0) (type default))
        (fill (type none))
      )
      (polyline
        (pts
          (xy 0 2.54)
          (xy 0.762 1.27)
        )
        (stroke (width 0) (type default))
        (fill (type none))
      )
    )
    (symbol "+5V_1_1"
      (pin power_in line (at 0 0 90) (length 0) hide
        (name "+5V" (effects (font (size 1.27 1.27))))
        (number "1" (effects (font (size 1.27 1.27))))
      )
    )
  )
  (symbol "IN-12A" (pin_numbers hide) (pin_names (offset 1.016)) (in_bom yes) (on_board yes)
    (property "Reference" "NX" (at -1.524 19.304 0)
      (effects (font (size 1.143 1.143)) (justify left bottom))
    )
    (property "Value" "IN-12A" (at -3.048 13.716 0)
      (effects (font (size 1.143 1.143)) (justify left bottom))
    )
    (property "Footprint" "nixies-us_IN-12" (at 1.016 -13.208 0)
      (effects (font (size 0.508 0.508)) hide)
    )
    (property "Datasheet" "" (at 1.27 -1.778 0)
      (effects (font (size 1.27 1.27)) hide)
    )
    (property "ki_locked" "" (at 0 0 0)
      (effects (font (size 1.27 1.27)))
    )
    (property "ki_fp_filters" "*IN-12* *IN-12-DSUB*" (at 0 0 0)
      (effects (font (size 1.27 1.27)) hide)
    )
    (symbol "IN-12A_1_0"
      (polyline
        (pts
          (xy -6.35 -12.573)
          (xy -6.35 11.557)
        )
        (stroke (width 0) (type default))
        (fill (type none))
      )
      (polyline
        (pts
          (xy 6.35 -12.573)
          (xy 6.35 11.557)
        )
        (stroke (width 0) (type default))
        (fill (type none))
      )
    )
    (symbol "IN-12A_1_1"
      (arc (start -6.35 -12.573) (mid 0 -18.8954) (end 6.35 -12.573)
        (stroke (width 0) (type default))
        (fill (type none))
      )
      (arc (start 6.35 11.557) (mid 0 17.8794) (end -6.35 11.557)
        (stroke (width 0) (type default))
        (fill (type none))
      )
      (pin bidirectional line (at -11.43 11.43 0) (length 5.08)
        (name "0" (effects (font (size 1.016 1.016))))
        (number "0" (effects (font (size 1.016 1.016))))
      )
      (pin bidirectional line (at -11.43 8.89 0) (length 5.08)
        (name "1" (effects (font (size 1.016 1.016))))
        (number "1" (effects (font (size 1.016 1.016))))
      )
      (pin bidirectional line (at -11.43 6.35 0) (length 5.08)
        (name "2" (effects (font (size 1.016 1.016))))
        (number "2" (effects (font (size 1.016 1.016))))
      )
      (pin bidirectional line (at -11.43 3.81 0) (length 5.08)
        (name "3" (effects (font (size 1.016 1.016))))
        (number "3" (effects (font (size 1.016 1.016))))
      )
      (pin bidirectional line (at -11.43 1.27 0) (length 5.08)
        (name "4" (effects (font (size 1.016 1.016))))
        (number "4" (effects (font (size 1.016 1.016))))
      )
      (pin bidirectional line (at -11.43 -1.27 0) (length 5.08)
        (name "5" (effects (font (size 1.016 1.016))))
        (number "5" (effects (font (size 1.016 1.016))))
      )
      (pin bidirectional line (at -11.43 -3.81 0) (length 5.08)
        (name "6" (effects (font (size 1.016 1.016))))
        (number "6" (effects (font (size 1.016 1.016))))
      )
      (pin bidirectional line (at -11.43 -6.35 0) (length 5.08)
        (name "7" (effects (font (size 1.016 1.016))))
        (number "7" (effects (font (size 1.016 1.016))))
      )
      (pin bidirectional line (at -11.43 -8.89 0) (length 5.08)
        (name "8" (effects (font (size 1.016 1.016))))
        (number "8" (effects (font (size 1.016 1.016))))
      )
      (pin bidirectional line (at -11.43 -11.43 0) (length 5.08)
        (name "9" (effects (font (size 1.016 1.016))))
        (number "9" (effects (font (size 1.016 1.016))))
      )
      (pin bidirectional line (at 11.43 0 180) (length 5.08)
        (name "A" (effects (font (size 1.016 1.016))))
        (number "A" (effects (font (size 1.016 1.016))))
      )
    )
  )
  (symbol "K155ID1" (pin_names (offset 1.016)) (in_bom yes) (on_board yes)
    (property "Reference" "U" (at 2.54 -22.86 0)
      (effects (font (size 1.27 1.27)))
    )
    (property "Value" "K155ID1" (at 2.54 7.62 0)
      (effects (font (size 1.27 1.27)))
    )
    (property "Footprint" "" (at 2.54 -22.86 0)
      (effects (font (size 1.27 1.27)) hide)
    )
    (property "Datasheet" "" (at 2.54 -22.86 0)
      (effects (font (size 1.27 1.27)) hide)
    )
    (symbol "K155ID1_0_1"
      (rectangle (start -2.54 6.35) (end 7.62 -21.59)
        (stroke (width 0) (type default))
        (fill (type none))
      )
    )
    (symbol "K155ID1_1_1"
      (pin output line (at 10.16 -16.51 180) (length 2.54)
        (name "8" (effects (font (size 1.27 1.27))))
        (number "1" (effects (font (size 1.27 1.27))))
      )
      (pin output line (at 10.16 -13.97 180) (length 2.54)
        (name "7" (effects (font (size 1.27 1.27))))
        (number "10" (effects (font (size 1.27 1.27))))
      )
      (pin output line (at 10.16 -11.43 180) (length 2.54)
        (name "6" (effects (font (size 1.27 1.27))))
        (number "11" (effects (font (size 1.27 1.27))))
      )
      (pin passive line (at -5.08 1.27 0) (length 2.54)
        (name "GND" (effects (font (size 1.27 1.27))))
        (number "12" (effects (font (size 1.27 1.27))))
      )
      (pin output line (at 10.16 -6.35 180) (length 2.54)
        (name "4" (effects (font (size 1.27 1.27))))
        (number "13" (effects (font (size 1.27 1.27))))
      )
      (pin output line (at 10.16 -8.89 180) (length 2.54)
        (name "5" (effects (font (size 1.27 1.27))))
        (number "14" (effects (font (size 1.27 1.27))))
      )
      (pin output line (at 10.16 1.27 180) (length 2.54)
        (name "1" (effects (font (size 1.27 1.27))))
        (number "15" (effects (font (size 1.27 1.27))))
      )
      (pin output line (at 10.16 3.81 180) (length 2.54)
        (name "0" (effects (font (size 1.27 1.27))))
        (number "16" (effects (font (size 1.27 1.27))))
      )
      (pin output line (at 10.16 -19.05 180) (length 2.54)
        (name "9" (effects (font (size 1.27 1.27))))
        (number "2" (effects (font (size 1.27 1.27))))
      )
      (pin input line (at -5.08 -8.89 0) (length 2.54)
        (name "A" (effects (font (size 1.27 1.27))))
        (number "3" (effects (font (size 1.27 1.27))))
      )
      (pin input line (at -5.08 -16.51 0) (length 2.54)
        (name "D" (effects (font (size 1.27 1.27))))
        (number "4" (effects (font (size 1.27 1.27))))
      )
      (pin input line (at -5.08 3.81 0) (length 2.54)
        (name "VCC" (effects (font (size 1.27 1.27))))
        (number "5" (effects (font (size 1.27 1.27))))
      )
      (pin input line (at -5.08 -11.43 0) (length 2.54)
        (name "B" (effects (font (size 1.27 1.27))))
        (number "6" (effects (font (size 1.27 1.27))))
      )
      (pin input line (at -5.08 -13.97 0) (length 2.54)
        (name "C" (effects (font (size 1.27 1.27))))
        (number "7" (effects (font (size 1.27 1.27))))
      )
      (pin output line (at 10.16 -1.27 180) (length 2.54)
        (name "2" (effects (font (size 1.27 1.27))))
        (number "8" (effects (font (size 1.27 1.27))))
      )
      (pin output line (at 10.16 -3.81 180) (length 2.54)
        (name "3" (effects (font (size 1.27 1.27))))
        (number "9" (effects (font (size 1.27 1.27))))
      )
    )
  )
  (symbol "PCF8574A" (in_bom yes) (on_board yes)
    (property "Reference" "U" (at -8.89 16.51 0)
      (effects (font (size 1.27 1.27)) (justify left))
    )
    (property "Value" "PCF8574A" (at 2.54 16.51 0)
      (effects (font (size 1.27 1.27)) (justify left))
    )
    (property "Footprint" "" (at 0 0 0)
      (effects (font (size 1.27 1.27)) hide)
    )
    (property "Datasheet" "https://www.nxp.com/docs/en/data-sheet/PCF8574_PCF8574A.pdf" (at 1.016 -28.702 0)
      (effects (font (size 1.27 1.27)) hide)
    )
    (property "ki_keywords" "I2C Expander" (at 0 0 0)
      (effects (font (size 1.27 1.27)) hide)
    )
    (property "ki_description" "8 Bit Port/Expander to I2C Bus, DIP/SOIC-16" (at 0 0 0)
      (effects (font (size 1.27 1.27)) hide)
    )
    (property "ki_fp_filters" "DIP*W7.62mm* SOIC*7.5x10.3mm*P1.27mm*" (at 0 0 0)
      (effects (font (size 1.27 1.27)) hide)
    )
    (symbol "PCF8574A_0_1"
      (rectangle (start -10.16 15.24) (end 10.16 -15.24)
        (stroke (width 0.254) (type default))
        (fill (type background))
      )
    )
    (symbol "PCF8574A_1_1"
      (pin input line (at -12.7 2.54 0) (length 2.54)
        (name "A0" (effects (font (size 1.27 1.27))))
        (number "1" (effects (font (size 1.27 1.27))))
      )
      (pin bidirectional line (at 12.7 -8.382 180) (length 2.54)
        (name "P5" (effects (font (size 1.27 1.27))))
        (number "10" (effects (font (size 1.27 1.27))))
      )
      (pin bidirectional line (at 12.7 -10.922 180) (length 2.54)
        (name "P6" (effects (font (size 1.27 1.27))))
        (number "11" (effects (font (size 1.27 1.27))))
      )
      (pin bidirectional line (at 12.7 -13.462 180) (length 2.54)
        (name "P7" (effects (font (size 1.27 1.27))))
        (number "12" (effects (font (size 1.27 1.27))))
      )
      (pin open_collector output_low (at -12.7 -10.16 0) (length 2.54)
        (name "~{INT}" (effects (font (size 1.27 1.27))))
        (number "13" (effects (font (size 1.27 1.27))))
      )
      (pin input line (at -12.7 10.16 0) (length 2.54)
        (name "SCL" (effects (font (size 1.27 1.27))))
        (number "14" (effects (font (size 1.27 1.27))))
      )
      (pin bidirectional line (at -12.7 7.62 0) (length 2.54)
        (name "SDA" (effects (font (size 1.27 1.27))))
        (number "15" (effects (font (size 1.27 1.27))))
      )
      (pin power_in line (at 0 17.78 270) (length 2.54)
        (name "VDD" (effects (font (size 1.27 1.27))))
        (number "16" (effects (font (size 1.27 1.27))))
      )
      (pin input line (at -12.7 0 0) (length 2.54)
        (name "A1" (effects (font (size 1.27 1.27))))
        (number "2" (effects (font (size 1.27 1.27))))
      )
      (pin input line (at -12.7 -2.54 0) (length 2.54)
        (name "A2" (effects (font (size 1.27 1.27))))
        (number "3" (effects (font (size 1.27 1.27))))
      )
      (pin bidirectional line (at 12.7 12.7 180) (length 2.54)
        (name "P0" (effects (font (size 1.27 1.27))))
        (number "4" (effects (font (size 1.27 1.27))))
      )
      (pin bidirectional line (at 12.7 10.16 180) (length 2.54)
        (name "P1" (effects (font (size 1.27 1.27))))
        (number "5" (effects (font (size 1.27 1.27))))
      )
      (pin bidirectional line (at 12.7 7.62 180) (length 2.54)
        (name "P2" (effects (font (size 1.27 1.27))))
        (number "6" (effects (font (size 1.27 1.27))))
      )
      (pin bidirectional line (at 12.7 5.08 180) (length 2.54)
        (name "P3" (effects (font (size 1.27 1.27))))
        (number "7" (effects (font (size 1.27 1.27))))
      )
      (pin power_in line (at 0 -17.78 90) (length 2.54)
        (name "VSS" (effects (font (size 1.27 1.27))))
        (number "8" (effects (font (size 1.27 1.27))))
      )
      (pin bidirectional line (at 12.7 -5.842 180) (length 2.54)
        (name "P4" (effects (font (size 1.27 1.27))))
        (number "9" (effects (font (size 1.27 1.27))))
      )
    )
  )
  (symbol "Pico-USB-C" (pin_names (offset 1.016)) (in_bom yes) (on_board yes)
    (property "Reference" "U" (at -13.97 27.94 0)
      (effects (font (size 1.27 1.27)))
    )
    (property "Value" "Pico" (at 0 19.05 0)
      (effects (font (size 1.27 1.27)))
    )
    (property "Footprint" "RPi_Pico:RPi_Pico_SMD_TH" (at 0 0 90)
      (effects (font (size 1.27 1.27)) hide)
    )
    (property "Datasheet" "" (at 0 0 0)
      (effects (font (size 1.27 1.27)) hide)
    )
    (symbol "Pico-USB-C_0_0"
      (text "Raspberry Pi" (at 0 21.59 0)
        (effects (font (size 1.27 1.27)))
      )
    )
    (symbol "Pico-USB-C_0_1"
      (rectangle (start -15.24 26.67) (end 15.24 -26.67)
        (stroke (width 0) (type solid))
        (fill (type background))
      )
    )
    (symbol "Pico-USB-C_1_1"
      (pin bidirectional line (at -17.78 24.13 0) (length 2.54)
        (name "GPIO0" (effects (font (size 1.27 1.27))))
        (number "1" (effects (font (size 1.27 1.27))))
      )
      (pin bidirectional line (at -17.78 1.27 0) (length 2.54)
        (name "GPIO7" (effects (font (size 1.27 1.27))))
        (number "10" (effects (font (size 1.27 1.27))))
      )
      (pin bidirectional line (at -17.78 -1.27 0) (length 2.54)
        (name "GPIO8" (effects (font (size 1.27 1.27))))
        (number "11" (effects (font (size 1.27 1.27))))
      )
      (pin bidirectional line (at -17.78 -3.81 0) (length 2.54)
        (name "GPIO9" (effects (font (size 1.27 1.27))))
        (number "12" (effects (font (size 1.27 1.27))))
      )
      (pin power_in line (at -17.78 -6.35 0) (length 2.54)
        (name "GND" (effects (font (size 1.27 1.27))))
        (number "13" (effects (font (size 1.27 1.27))))
      )
      (pin bidirectional line (at -17.78 -8.89 0) (length 2.54)
        (name "GPIO10" (effects (font (size 1.27 1.27))))
        (number "14" (effects (font (size 1.27 1.27))))
      )
      (pin bidirectional line (at -17.78 -11.43 0) (length 2.54)
        (name "GPIO11" (effects (font (size 1.27 1.27))))
        (number "15" (effects (font (size 1.27 1.27))))
      )
      (pin bidirectional line (at -17.78 -13.97 0) (length 2.54)
        (name "GPIO12" (effects (font (size 1.27 1.27))))
        (number "16" (effects (font (size 1.27 1.27))))
      )
      (pin bidirectional line (at -17.78 -16.51 0) (length 2.54)
        (name "GPIO13" (effects (font (size 1.27 1.27))))
        (number "17" (effects (font (size 1.27 1.27))))
      )
      (pin power_in line (at -17.78 -19.05 0) (length 2.54)
        (name "GND" (effects (font (size 1.27 1.27))))
        (number "18" (effects (font (size 1.27 1.27))))
      )
      (pin bidirectional line (at -17.78 -21.59 0) (length 2.54)
        (name "GPIO14" (effects (font (size 1.27 1.27))))
        (number "19" (effects (font (size 1.27 1.27))))
      )
      (pin bidirectional line (at -17.78 21.59 0) (length 2.54)
        (name "GPIO1" (effects (font (size 1.27 1.27))))
        (number "2" (effects (font (size 1.27 1.27))))
      )
      (pin bidirectional line (at -17.78 -24.13 0) (length 2.54)
        (name "GPIO15" (effects (font (size 1.27 1.27))))
        (number "20" (effects (font (size 1.27 1.27))))
      )
      (pin bidirectional line (at 17.78 -24.13 180) (length 2.54)
        (name "GPIO16" (effects (font (size 1.27 1.27))))
        (number "21" (effects (font (size 1.27 1.27))))
      )
      (pin bidirectional line (at 17.78 -21.59 180) (length 2.54)
        (name "GPIO17" (effects (font (size 1.27 1.27))))
        (number "22" (effects (font (size 1.27 1.27))))
      )
      (pin power_in line (at 17.78 -19.05 180) (length 2.54)
        (name "GND" (effects (font (size 1.27 1.27))))
        (number "23" (effects (font (size 1.27 1.27))))
      )
      (pin bidirectional line (at 17.78 -16.51 180) (length 2.54)
        (name "GPIO18" (effects (font (size 1.27 1.27))))
        (number "24" (effects (font (size 1.27 1.27))))
      )
      (pin bidirectional line (at 17.78 -13.97 180) (length 2.54)
        (name "GPIO19" (effects (font (size 1.27 1.27))))
        (number "25" (effects (font (size 1.27 1.27))))
      )
      (pin bidirectional line (at 17.78 -11.43 180) (length 2.54)
        (name "GPIO20" (effects (font (size 1.27 1.27))))
        (number "26" (effects (font (size 1.27 1.27))))
      )
      (pin bidirectional line (at 17.78 -8.89 180) (length 2.54)
        (name "GPIO21" (effects (font (size 1.27 1.27))))
        (number "27" (effects (font (size 1.27 1.27))))
      )
      (pin power_in line (at 17.78 -6.35 180) (length 2.54)
        (name "GND" (effects (font (size 1.27 1.27))))
        (number "28" (effects (font (size 1.27 1.27))))
      )
      (pin bidirectional line (at 17.78 -3.81 180) (length 2.54)
        (name "GPIO22" (effects (font (size 1.27 1.27))))
        (number "29" (effects (font (size 1.27 1.27))))
      )
      (pin power_in line (at -17.78 19.05 0) (length 2.54)
        (name "GND" (effects (font (size 1.27 1.27))))
        (number "3" (effects (font (size 1.27 1.27))))
      )
      (pin input line (at 17.78 -1.27 180) (length 2.54)
        (name "RUN" (effects (font (size 1.27 1.27))))
        (number "30" (effects (font (size 1.27 1.27))))
      )
      (pin bidirectional line (at 17.78 1.27 180) (length 2.54)
        (name "GPIO26_ADC0" (effects (font (size 1.27 1.27))))
        (number "31" (effects (font (size 1.27 1.27))))
      )
      (pin bidirectional line (at 17.78 3.81 180) (length 2.54)
        (name "GPIO27_ADC1" (effects (font (size 1.27 1.27))))
        (number "32" (effects (font (size 1.27 1.27))))
      )
      (pin power_in line (at 17.78 6.35 180) (length 2.54)
        (name "AGND" (effects (font (size 1.27 1.27))))
        (number "33" (effects (font (size 1.27 1.27))))
      )
      (pin bidirectional line (at 17.78 8.89 180) (length 2.54)
        (name "GPIO28_ADC2" (effects (font (size 1.27 1.27))))
        (number "34" (effects (font (size 1.27 1.27))))
      )
      (pin bidirectional line (at 17.78 11.43 180) (length 2.54)
        (name "GPIO29_ADC3" (effects (font (size 1.27 1.27))))
        (number "35" (effects (font (size 1.27 1.27))))
      )
      (pin power_out line (at 17.78 13.97 180) (length 2.54)
        (name "3V3" (effects (font (size 1.27 1.27))))
        (number "36" (effects (font (size 1.27 1.27))))
      )
      (pin bidirectional line (at 17.78 16.51 180) (length 2.54)
        (name "23" (effects (font (size 1.27 1.27))))
        (number "37" (effects (font (size 1.27 1.27))))
      )
      (pin bidirectional line (at 17.78 19.05 180) (length 2.54)
        (name "GND" (effects (font (size 1.27 1.27))))
        (number "38" (effects (font (size 1.27 1.27))))
      )
      (pin unspecified line (at 17.78 21.59 180) (length 2.54)
        (name "VSYS" (effects (font (size 1.27 1.27))))
        (number "39" (effects (font (size 1.27 1.27))))
      )
      (pin bidirectional line (at -17.78 16.51 0) (length 2.54)
        (name "GPIO2" (effects (font (size 1.27 1.27))))
        (number "4" (effects (font (size 1.27 1.27))))
      )
      (pin unspecified line (at 17.78 24.13 180) (length 2.54)
        (name "VBUS" (effects (font (size 1.27 1.27))))
        (number "40" (effects (font (size 1.27 1.27))))
      )
      (pin power_out line (at -3.81 -29.21 90) (length 2.54)
        (name "3V3" (effects (font (size 1.27 1.27))))
        (number "41" (effects (font (size 1.27 1.27))))
      )
      (pin bidirectional line (at -1.27 -29.21 90) (length 2.54)
        (name "SWDIO" (effects (font (size 1.27 1.27))))
        (number "42" (effects (font (size 1.27 1.27))))
      )
      (pin input line (at 1.27 -29.21 90) (length 2.54)
        (name "SWCLK" (effects (font (size 1.27 1.27))))
        (number "43" (effects (font (size 1.27 1.27))))
      )
      (pin power_in line (at 3.81 -29.21 90) (length 2.54)
        (name "GND" (effects (font (size 1.27 1.27))))
        (number "44" (effects (font (size 1.27 1.27))))
      )
      (pin bidirectional line (at -17.78 13.97 0) (length 2.54)
        (name "GPIO3" (effects (font (size 1.27 1.27))))
        (number "5" (effects (font (size 1.27 1.27))))
      )
      (pin bidirectional line (at -17.78 11.43 0) (length 2.54)
        (name "GPIO4" (effects (font (size 1.27 1.27))))
        (number "6" (effects (font (size 1.27 1.27))))
      )
      (pin bidirectional line (at -17.78 8.89 0) (length 2.54)
        (name "GPIO5" (effects (font (size 1.27 1.27))))
        (number "7" (effects (font (size 1.27 1.27))))
      )
      (pin power_in line (at -17.78 6.35 0) (length 2.54)
        (name "GND" (effects (font (size 1.27 1.27))))
        (number "8" (effects (font (size 1.27 1.27))))
      )
      (pin bidirectional line (at -17.78 3.81 0) (length 2.54)
        (name "GPIO6" (effects (font (size 1.27 1.27))))
        (number "9" (effects (font (size 1.27 1.27))))
      )
    )
  )
  (symbol "SN74141N" (pin_names (offset 1.016)) (in_bom yes) (on_board yes)
    (property "Reference" "U" (at 2.54 -22.86 0)
      (effects (font (size 1.27 1.27)))
    )
    (property "Value" "SN74141N" (at 2.54 7.62 0)
      (effects (font (size 1.27 1.27)))
    )
    (property "Footprint" "" (at 2.54 -22.86 0)
      (effects (font (size 1.27 1.27)) hide)
    )
    (property "Datasheet" "" (at 2.54 -22.86 0)
      (effects (font (size 1.27 1.27)) hide)
    )
    (symbol "SN74141N_0_1"
      (rectangle (start -2.54 6.35) (end 7.62 -21.59)
        (stroke (width 0) (type default))
        (fill (type none))
      )
    )
    (symbol "SN74141N_1_1"
      (pin output line (at 10.16 -16.51 180) (length 2.54)
        (name "8" (effects (font (size 1.27 1.27))))
        (number "1" (effects (font (size 1.27 1.27))))
      )
      (pin output line (at 10.16 -13.97 180) (length 2.54)
        (name "7" (effects (font (size 1.27 1.27))))
        (number "10" (effects (font (size 1.27 1.27))))
      )
      (pin output line (at 10.16 -11.43 180) (length 2.54)
        (name "6" (effects (font (size 1.27 1.27))))
        (number "11" (effects (font (size 1.27 1.27))))
      )
      (pin passive line (at -5.08 1.27 0) (length 2.54)
        (name "GND" (effects (font (size 1.27 1.27))))
        (number "12" (effects (font (size 1.27 1.27))))
      )
      (pin output line (at 10.16 -6.35 180) (length 2.54)
        (name "4" (effects (font (size 1.27 1.27))))
        (number "13" (effects (font (size 1.27 1.27))))
      )
      (pin output line (at 10.16 -8.89 180) (length 2.54)
        (name "5" (effects (font (size 1.27 1.27))))
        (number "14" (effects (font (size 1.27 1.27))))
      )
      (pin output line (at 10.16 1.27 180) (length 2.54)
        (name "1" (effects (font (size 1.27 1.27))))
        (number "15" (effects (font (size 1.27 1.27))))
      )
      (pin output line (at 10.16 3.81 180) (length 2.54)
        (name "0" (effects (font (size 1.27 1.27))))
        (number "16" (effects (font (size 1.27 1.27))))
      )
      (pin output line (at 10.16 -19.05 180) (length 2.54)
        (name "9" (effects (font (size 1.27 1.27))))
        (number "2" (effects (font (size 1.27 1.27))))
      )
      (pin input line (at -5.08 -8.89 0) (length 2.54)
        (name "A" (effects (font (size 1.27 1.27))))
        (number "3" (effects (font (size 1.27 1.27))))
      )
      (pin input line (at -5.08 -16.51 0) (length 2.54)
        (name "D" (effects (font (size 1.27 1.27))))
        (number "4" (effects (font (size 1.27 1.27))))
      )
      (pin input line (at -5.08 3.81 0) (length 2.54)
        (name "VCC" (effects (font (size 1.27 1.27))))
        (number "5" (effects (font (size 1.27 1.27))))
      )
      (pin input line (at -5.08 -11.43 0) (length 2.54)
        (name "B" (effects (font (size 1.27 1.27))))
        (number "6" (effects (font (size 1.27 1.27))))
      )
      (pin input line (at -5.08 -13.97 0) (length 2.54)
        (name "C" (effects (font (size 1.27 1.27))))
        (number "7" (effects (font (size 1.27 1.27))))
      )
      (pin output line (at 10.16 -1.27 180) (length 2.54)
        (name "2" (effects (font (size 1.27 1.27))))
        (number "8" (effects (font (size 1.27 1.27))))
      )
      (pin output line (at 10.16 -3.81 180) (length 2.54)
        (name "3" (effects (font (size 1.27 1.27))))
        (number "9" (effects (font (size 1.27 1.27))))
      )
    )
  )
  (symbol "VTube" (power) (pin_names (offset 0)) (in_bom yes) (on_board yes)
    (property "Reference" "VTube" (at 0 -3.81 0)
      (effects (font (size 1.27 1.27)) hide)
    )
    (property "Value" "VTube" (at 0 3.556 0)
      (effects (font (size 1.27 1.27)))
    )
    (property "Footprint" "" (at 0 0 0)
      (effects (font (size 1.27 1.27)) hide)
    )
    (property "Datasheet" "" (at 0 0 0)
      (effects (font (size 1.27 1.27)) hide)
    )
    (property "ki_keywords" "local power" (at 0 0 0)
      (effects (font (size 1.27 1.27)) hide)
    )
    (property "ki_description" "Power symbol creates a local abel with name \"VTube\"" (at 0 0 0)
      (effects (font (size 1.27 1.27)) hide)
    )
    (symbol "VTube_0_1"
      (polyline
        (pts
          (xy -0.762 1.27)
          (xy 0 2.54)
        )
        (stroke (width 0) (type default))
        (fill (type none))
      )
      (polyline
        (pts
          (xy 0 0)
          (xy 0 2.54)
        )
        (stroke (width 0) (type default))
        (fill (type none))
      )
      (polyline
        (pts
          (xy 0 2.54)
          (xy 0.762 1.27)
        )
        (stroke (width 0) (type default))
        (fill (type none))
      )
    )
    (symbol "VTube_1_1"
      (pin power_in line (at 0 0 90) (length 0) hide
        (name "+5V" (effects (font (size 1.27 1.27))))
        (number "1" (effects (font (size 1.27 1.27))))
      )
    )
  )
)
